Clustering analysis of customers dataset
…
Here the skew is even more visible. K-means cant accept such non-spherical data. Monetary value can be log-transformed, and frequency encoded as categorical variable - if more than one purchase.

df_rfm %>%
  mutate(fre = ifelse(fre==1, 0,1)) %>%
  mutate(
    mon = ifelse(mon>0, log(mon), 0)
  ) %>%
  select(rec, fre, mon) %>%
  mutate_at(c('rec', 'mon'), ~(scale(.) %>% as.vector))-> df_rfm_scaled

df_rfm_scaled

## # A tibble: 95,780 x 3
##       rec   fre    mon
##     <dbl> <dbl>  <dbl>
##  1 -0.835     0  0.286
##  2 -0.815     0 -1.73 
##  3  1.98      0 -0.322
##  4  0.549     0 -1.15 
##  5  0.331     0  0.685
##  6 -0.606     0  0.484
##  7 -0.703     0 -1.41 
##  8 -0.366     0  1.61 
##  9  2.01      0  0.354
## 10 -0.446     0  0.177
## # ... with 95,770 more rows
…
